What the Package Does (One Line, Title Case) • ukelection2019
…
Load the data:

library(ukelection2019)

Look at it:

ukvote2019
#> # A tibble: 3,320 x 13
#> # Groups:   candidate [3,300]
#>    cid   constituency electorate party_name candidate votes vote_share_perc…
#>    <chr> <chr>             <int> <chr>      <chr>     <int>            <dbl>
#>  1 W070… Aberavon          50747 Labour     Stephen … 17008             53.8
#>  2 W070… Aberavon          50747 Conservat… Charlott…  6518             20.6
#>  3 W070… Aberavon          50747 The Brexi… Glenda D…  3108              9.8
#>  4 W070… Aberavon          50747 Plaid Cym… Nigel Hu…  2711              8.6
#>  5 W070… Aberavon          50747 Liberal D… Sheila K…  1072              3.4
#>  6 W070… Aberavon          50747 Independe… Captain …   731              2.3
#>  7 W070… Aberavon          50747 Green      Giorgia …   450              1.4
#>  8 W070… Aberconwy         44699 Conservat… Robin Mi… 14687             46.1
#>  9 W070… Aberconwy         44699 Labour     Emily Ow… 12653             39.7
#> 10 W070… Aberconwy         44699 Plaid Cym… Lisa Goo…  2704              8.5
#> # … with 3,310 more rows, and 6 more variables: vote_share_change <dbl>,
#> #   total_votes_cast <int>, vrank <int>, turnout <dbl>, fname <chr>,
#> #   lname <chr>
…
